<?xml version="1.0" encoding="utf-8"?>
<!-- Generator: Adobe Illustrator 16.0.0, SVG Export Plug-In . SVG Version: 6.00 Build 0)  -->
<!DOCTYPE svg PUBLIC "-//W3C//DTD SVG 1.1//EN" "http://www.w3.org/Graphics/SVG/1.1/DTD/svg11.dtd">
<svg version="1.1" xmlns="http://www.w3.org/2000/svg" xmlns:xlink="http://www.w3.org/1999/xlink" x="0px" y="0px" width="1000px"
	 height="1000px" viewBox="0 0 1000 1000" enable-background="new 0 0 1000 1000" xml:space="preserve">
<g id="Layer_2">
	<g opacity="0.4">
		
			<linearGradient id="SVGID_1_" gradientUnits="userSpaceOnUse" x1="645.3457" y1="370.0361" x2="-82.3392" y2="790.165" gradientTransform="matrix(1 0 0 -1 202.3999 1081.0098)">
			<stop  offset="0" style="stop-color:#EE2E7C"/>
			<stop  offset="0.3202" style="stop-color:#F15B2B"/>
			<stop  offset="0.6749" style="stop-color:#8EC641"/>
			<stop  offset="1" style="stop-color:#29AAE1"/>
		</linearGradient>
		<path fill="url(#SVGID_1_)" d="M331.793,721.651c-64.572-42.587-116.255-86.038-157.581-140.413
			c-51.877-68.254-83.857-144.395-68.035-234.855c22.233-127.104,139.79-230.75,279.33-204.651
			c41.724,7.805,72.688,34.515,98.37,67.409c24.931,31.931,44.908,67.638,73.63,96.763c32.783,33.249,73.236,50.128,118.207,57.813
			c40.323,6.889,78.349,17.148,114.189,38.501c82.453,49.113,113.257,131.528,91.384,224.926
			c-21.554,92.059-77.597,155.929-164.195,190.831c-52.413,21.123-106.483,19.325-159.889,7.506
			c-55.085-12.193-105.879-34.57-155.236-61.16C374.965,749.766,349.958,732.34,331.793,721.651z"/>
	</g>
</g>
<g id="Layer_1">
	<g>
		<rect x="317.241" y="296.485" fill="none" width="365.519" height="431.031"/>
		<path fill="#FFFFFF" d="M597.74,666.48l-41-107h-162.5l-41.5,107h-20l142.5-368.5l143,368.5H597.74z M475.241,350.48l-73,189h146
			L475.241,350.48z"/>
	</g>
	<g>
	</g>
	<g>
	</g>
	<g>
	</g>
	<g>
	</g>
	<g>
	</g>
	<g>
	</g>
</g>
</svg>
