<?xml version="1.0" encoding="utf-8"?>
<!-- Generator: Adobe Illustrator 16.0.0, SVG Export Plug-In . SVG Version: 6.00 Build 0)  -->
<!DOCTYPE svg PUBLIC "-//W3C//DTD SVG 1.1//EN" "http://www.w3.org/Graphics/SVG/1.1/DTD/svg11.dtd">
<svg version="1.1" id="Layer_1" xmlns="http://www.w3.org/2000/svg" xmlns:xlink="http://www.w3.org/1999/xlink" x="0px" y="0px"
	 width="1000px" height="1000px" viewBox="0 0 1000 1000" enable-background="new 0 0 1000 1000" xml:space="preserve">
<g id="Layer_8">
	<g>
		
			<linearGradient id="SVGID_1_" gradientUnits="userSpaceOnUse" x1="294.6548" y1="764.207" x2="789.5886" y2="-93.0436" gradientTransform="matrix(1 0 0 -1 -47.6001 831.0098)">
			<stop  offset="0" style="stop-color:#8EC641"/>
			<stop  offset="1" style="stop-color:#2BACE2"/>
		</linearGradient>
		<path fill="url(#SVGID_1_)" d="M299.362,785.489c-78.925-52.054-142.097-105.169-192.611-171.633
			c-63.41-83.427-102.5-176.496-83.159-287.065C50.768,171.434,194.459,44.745,365.02,76.647
			c50.999,9.539,88.848,42.188,120.24,82.394c30.472,39.028,54.889,82.674,89.998,118.274
			c40.072,40.639,89.517,61.271,144.487,70.667c49.286,8.418,95.767,20.961,139.573,47.059
			C960.1,455.073,997.753,555.805,971.021,669.969c-26.347,112.525-94.852,190.597-200.702,233.252
			c-64.063,25.823-130.153,23.621-195.432,9.177c-67.332-14.903-129.419-42.255-189.745-74.756
			C352.13,819.851,321.567,798.551,299.362,785.489z"/>
	</g>
</g>
</svg>
